{
  "href": "https://api.spotify.com/v1/me/tracks?offset=5&limit=10&market=ES",
  "items": [
    {
      "added_at": "2020-07-27T12:01:56Z",
      "track": {
        "album": {
          "album_type": "single",
          "artists": [
            {
              "external_urls": {
                "spotify": "https://open.spotify.com/artist/1RdLpyPJdT5s1onIHhJxpw"
              },
              "href": "https://api.spotify.com/v1/artists/1RdLpyPJdT5s1onIHhJxpw",
              "id": "1RdLpyPJdT5s1onIHhJxpw",
              "name": "Paul Bright",
              "type": "artist",
              "uri": "spotify:artist:1RdLpyPJdT5s1onIHhJxpw"
            }
          ],
          "external_urls": {
            "spotify": "https://open.spotify.com/album/3x2D9OC7oVEJHwyZsBkahJ"
          },
          "href": "https://api.spotify.com/v1/albums/3x2D9OC7oVEJHwyZsBkahJ",
          "id": "3x2D9OC7oVEJHwyZsBkahJ",
          "images": [
            {
              "height": 640,
              "url": "https://i.scdn.co/image/ab67616d0000b273e1129e79077811435128feed",
              "width": 640
            },
            {
              "height": 300,
              "url": "https://i.scdn.co/image/ab67616d00001e02e1129e79077811435128feed",
              "width": 300
            },
            {
              "height": 64,
              "url": "https://i.scdn.co/image/ab67616d00004851e1129e79077811435128feed",
              "width": 64
            }
          ],
          "name": "Richard Cory",
          "release_date": "2020-07-15",
          "release_date_precision": "day",
          "total_tracks": 1,
          "type": "album",
          "uri": "spotify:album:3x2D9OC7oVEJHwyZsBkahJ"
        },
        "artists": [
          {
            "external_urls": {
              "spotify": "https://open.spotify.com/artist/1RdLpyPJdT5s1onIHhJxpw"
            },
            "href": "https://api.spotify.com/v1/artists/1RdLpyPJdT5s1onIHhJxpw",
            "id": "1RdLpyPJdT5s1onIHhJxpw",
            "name": "Paul Bright",
            "type": "artist",
            "uri": "spotify:artist:1RdLpyPJdT5s1onIHhJxpw"
          }
        ],
        "available_markets": [],
        "disc_number": 1,
        "duration_ms": 164635,
        "explicit": false,
        "external_ids": {
          "isrc": "ushm82075388"
        },
        "external_urls": {
          "spotify": "https://open.spotify.com/track/1TmDLvLZiUYi5uRdcGUgaP"
        },
        "href": "https://api.spotify.com/v1/tracks/1TmDLvLZiUYi5uRdcGUgaP",
        "id": "1TmDLvLZiUYi5uRdcGUgaP",
        "is_local": false,
        "is_playable": true,
        "name": "Richard Cory",
        "popularity": 1,
        "preview_url": "https://p.scdn.co/mp3-preview/cacdb121c50206cfca8b97561dd68e0cc831fcfe?cid=774b29d4f13844c495f206cafdad9c86",
        "track_number": 1,
        "type": "track",
        "uri": "spotify:track:1TmDLvLZiUYi5uRdcGUgaP"
      }
    },
    {
      "added_at": "2020-07-27T11:56:55Z",
      "track": {
        "album": {
          "album_type": "album",
          "artists": [
            {
              "external_urls": {
                "spotify": "https://open.spotify.com/artist/2s6lxOYvvCvzpHtd3VyuMj"
              },
              "href": "https://api.spotify.com/v1/artists/2s6lxOYvvCvzpHtd3VyuMj",
              "id": "2s6lxOYvvCvzpHtd3VyuMj",
              "name": "Uffie",
              "type": "artist",
              "uri": "spotify:artist:2s6lxOYvvCvzpHtd3VyuMj"
            }
          ],
          "external_urls": {
            "spotify": "https://open.spotify.com/album/4Or2Bkc2Hq9oKrAusORnXd"
          },
          "href": "https://api.spotify.com/v1/albums/4Or2Bkc2Hq9oKrAusORnXd",
          "id": "4Or2Bkc2Hq9oKrAusORnXd",
          "images": [
            {
              "height": 640,
              "url": "https://i.scdn.co/image/ab67616d0000b2738f09651883c5a58aee776526",
              "width": 640
            },
            {
              "height": 300,
              "url": "https://i.scdn.co/image/ab67616d00001e028f09651883c5a58aee776526",
              "width": 300
            },
            {
              "height": 64,
              "url": "https://i.scdn.co/image/ab67616d000048518f09651883c5a58aee776526",
              "width": 64
            }
          ],
          "name": "Tokyo Love Hotel",
          "release_date": "2019-02-22",
          "release_date_precision": "day",
          "total_tracks": 7,
          "type": "album",
          "uri": "spotify:album:4Or2Bkc2Hq9oKrAusORnXd"
        },
        "artists": [
          {
            "external_urls": {
              "spotify": "https://open.spotify.com/artist/2s6lxOYvvCvzpHtd3VyuMj"
            },
            "href": "https://api.spotify.com/v1/artists/2s6lxOYvvCvzpHtd3VyuMj",
            "id": "2s6lxOYvvCvzpHtd3VyuMj",
            "name": "Uffie",
            "type": "artist",
            "uri": "spotify:artist:2s6lxOYvvCvzpHtd3VyuMj"
          }
        ],
        "available_markets": [],
        "disc_number": 1,
        "duration_ms": 173112,
        "explicit": false,
        "external_ids": {
          "isrc": "QZB4J1812898"
        },
        "external_urls": {
          "spotify": "https://open.spotify.com/track/5TLcClDDNCHAnVbETHqpeA"
        },
        "href": "https://api.spotify.com/v1/tracks/5TLcClDDNCHAnVbETHqpeA",
        "id": "5TLcClDDNCHAnVbETHqpeA",
        "is_local": false,
        "is_playable": true,
        "name": "Drugs",
        "popularity": 42,
        "preview_url": "https://p.scdn.co/mp3-preview/41c119894aaf132b919b940c1620e65bf7f2baae?cid=774b29d4f13844c495f206cafdad9c86",
        "track_number": 1,
        "type": "track",
        "uri": "spotify:track:5TLcClDDNCHAnVbETHqpeA"
      }
    },
    {
      "added_at": "2019-11-22T17:05:01Z",
      "track": {
        "album": {
          "album_type": "album",
          "artists": [
            {
              "external_urls": {
                "spotify": "https://open.spotify.com/artist/7KMqksf0UMdyA0UCf4R3ux"
              },
              "href": "https://api.spotify.com/v1/artists/7KMqksf0UMdyA0UCf4R3ux",
              "id": "7KMqksf0UMdyA0UCf4R3ux",
              "name": "James Blunt",
              "type": "artist",
              "uri": "spotify:artist:7KMqksf0UMdyA0UCf4R3ux"
            }
          ],
          "external_urls": {
            "spotify": "https://open.spotify.com/album/1ekaxA9Q5GzUPCepx4wzMF"
          },
          "href": "https://api.spotify.com/v1/albums/1ekaxA9Q5GzUPCepx4wzMF",
          "id": "1ekaxA9Q5GzUPCepx4wzMF",
          "images": [
            {
              "height": 640,
              "url": "https://i.scdn.co/image/ab67616d0000b273105f043a4f470cf58cc01ccf",
              "width": 640
            },
            {
              "height": 300,
              "url": "https://i.scdn.co/image/ab67616d00001e02105f043a4f470cf58cc01ccf",
              "width": 300
            },
            {
              "height": 64,
              "url": "https://i.scdn.co/image/ab67616d00004851105f043a4f470cf58cc01ccf",
              "width": 64
            }
          ],
          "name": "Back to Bedlam",
          "release_date": "2005-08-08",
          "release_date_precision": "day",
          "total_tracks": 10,
          "type": "album",
          "uri": "spotify:album:1ekaxA9Q5GzUPCepx4wzMF"
        },
        "artists": [
          {
            "external_urls": {
              "spotify": "https://open.spotify.com/artist/7KMqksf0UMdyA0UCf4R3ux"
            },
            "href": "https://api.spotify.com/v1/artists/7KMqksf0UMdyA0UCf4R3ux",
            "id": "7KMqksf0UMdyA0UCf4R3ux",
            "name": "James Blunt",
            "type": "artist",
            "uri": "spotify:artist:7KMqksf0UMdyA0UCf4R3ux"
          }
        ],
        "available_markets": [],
        "disc_number": 1,
        "duration_ms": 209493,
        "explicit": true,
        "external_ids": {
          "isrc": "USAT20401588"
        },
        "external_urls": {
          "spotify": "https://open.spotify.com/track/0vg4WnUWvze6pBOJDTq99k"
        },
        "href": "https://api.spotify.com/v1/tracks/0vg4WnUWvze6pBOJDTq99k",
        "id": "0vg4WnUWvze6pBOJDTq99k",
        "is_local": false,
        "is_playable": true,
        "name": "You're Beautiful",
        "popularity": 77,
        "preview_url": "https://p.scdn.co/mp3-preview/1e9fe4947493daddd30a02f8e7b920eb413ce065?cid=774b29d4f13844c495f206cafdad9c86",
        "track_number": 2,
        "type": "track",
        "uri": "spotify:track:0vg4WnUWvze6pBOJDTq99k"
      }
    },
    {
      "added_at": "2019-07-15T23:46:57Z",
      "track": {
        "album": {
          "album_type": "single",
          "artists": [
            {
              "external_urls": {
                "spotify": "https://open.spotify.com/artist/01aC2ikO4Xgb2LUpf9JfKp"
              },
              "href": "https://api.spotify.com/v1/artists/01aC2ikO4Xgb2LUpf9JfKp",
              "id": "01aC2ikO4Xgb2LUpf9JfKp",
              "name": "Gary Clark Jr.",
              "type": "artist",
              "uri": "spotify:artist:01aC2ikO4Xgb2LUpf9JfKp"
            },
            {
              "external_urls": {
                "spotify": "https://open.spotify.com/artist/5svDnd8joFhbpbA3Ar0CfN"
              },
              "href": "https://api.spotify.com/v1/artists/5svDnd8joFhbpbA3Ar0CfN",
              "id": "5svDnd8joFhbpbA3Ar0CfN",
              "name": "Junkie XL",
              "type": "artist",
              "uri": "spotify:artist:5svDnd8joFhbpbA3Ar0CfN"
            }
          ],
          "external_urls": {
            "spotify": "https://open.spotify.com/album/1FA0rfTpK5dost6Zk4pxjC"
          },
          "href": "https://api.spotify.com/v1/albums/1FA0rfTpK5dost6Zk4pxjC",
          "id": "1FA0rfTpK5dost6Zk4pxjC",
          "images": [
            {
              "height": 640,
              "url": "https://i.scdn.co/image/ab67616d0000b273bce034d651da4d21e43c8a19",
              "width": 640
            },
            {
              "height": 300,
              "url": "https://i.scdn.co/image/ab67616d00001e02bce034d651da4d21e43c8a19",
              "width": 300
            },
            {
              "height": 64,
              "url": "https://i.scdn.co/image/ab67616d00004851bce034d651da4d21e43c8a19",
              "width": 64
            }
          ],
          "name": "Come Together",
          "release_date": "2017-09-08",
          "release_date_precision": "day",
          "total_tracks": 1,
          "type": "album",
          "uri": "spotify:album:1FA0rfTpK5dost6Zk4pxjC"
        },
        "artists": [
          {
            "external_urls": {
              "spotify": "https://open.spotify.com/artist/01aC2ikO4Xgb2LUpf9JfKp"
            },
            "href": "https://api.spotify.com/v1/artists/01aC2ikO4Xgb2LUpf9JfKp",
            "id": "01aC2ikO4Xgb2LUpf9JfKp",
            "name": "Gary Clark Jr.",
            "type": "artist",
            "uri": "spotify:artist:01aC2ikO4Xgb2LUpf9JfKp"
          },
          {
            "external_urls": {
              "spotify": "https://open.spotify.com/artist/5svDnd8joFhbpbA3Ar0CfN"
            },
            "href": "https://api.spotify.com/v1/artists/5svDnd8joFhbpbA3Ar0CfN",
            "id": "5svDnd8joFhbpbA3Ar0CfN",
            "name": "Junkie XL",
            "type": "artist",
            "uri": "spotify:artist:5svDnd8joFhbpbA3Ar0CfN"
          }
        ],
        "available_markets": [],
        "disc_number": 1,
        "duration_ms": 193714,
        "explicit": false,
        "external_ids": {
          "isrc": "USWB11701415"
        },
        "external_urls": {
          "spotify": "https://open.spotify.com/track/45HAjqRWiNv6mMPw4NvZrU"
        },
        "href": "https://api.spotify.com/v1/tracks/45HAjqRWiNv6mMPw4NvZrU",
        "id": "45HAjqRWiNv6mMPw4NvZrU",
        "is_local": false,
        "is_playable": true,
        "name": "Come Together",
        "popularity": 63,
        "preview_url": "https://p.scdn.co/mp3-preview/31ea5e41d9af8a261c3f9153a2c964c314a7dec5?cid=774b29d4f13844c495f206cafdad9c86",
        "track_number": 1,
        "type": "track",
        "uri": "spotify:track:45HAjqRWiNv6mMPw4NvZrU"
      }
    },
    {
      "added_at": "2019-07-12T10:50:23Z",
      "track": {
        "album": {
          "album_type": "single",
          "artists": [
            {
              "external_urls": {
                "spotify": "https://open.spotify.com/artist/7n2wHs1TKAczGzO7Dd2rGr"
              },
              "href": "https://api.spotify.com/v1/artists/7n2wHs1TKAczGzO7Dd2rGr",
              "id": "7n2wHs1TKAczGzO7Dd2rGr",
              "name": "Shawn Mendes",
              "type": "artist",
              "uri": "spotify:artist:7n2wHs1TKAczGzO7Dd2rGr"
            }
          ],
          "external_urls": {
            "spotify": "https://open.spotify.com/album/1J2BrRxtQjVUa7X9Ne99xD"
          },
          "href": "https://api.spotify.com/v1/albums/1J2BrRxtQjVUa7X9Ne99xD",
          "id": "1J2BrRxtQjVUa7X9Ne99xD",
          "images": [
            {
              "height": 640,
              "url": "https://i.scdn.co/image/ab67616d0000b273625acd26e0e455312667565f",
              "width": 640
            },
            {
              "height": 300,
              "url": "https://i.scdn.co/image/ab67616d00001e02625acd26e0e455312667565f",
              "width": 300
            },
            {
              "height": 64,
              "url": "https://i.scdn.co/image/ab67616d00004851625acd26e0e455312667565f",
              "width": 64
            }
          ],
          "name": "If I Can't Have You",
          "release_date": "2019-05-03",
          "release_date_precision": "day",
          "total_tracks": 1,
          "type": "album",
          "uri": "spotify:album:1J2BrRxtQjVUa7X9Ne99xD"
        },
        "artists": [
          {
            "external_urls": {
              "spotify": "https://open.spotify.com/artist/7n2wHs1TKAczGzO7Dd2rGr"
            },
            "href": "https://api.spotify.com/v1/artists/7n2wHs1TKAczGzO7Dd2rGr",
            "id": "7n2wHs1TKAczGzO7Dd2rGr",
            "name": "Shawn Mendes",
            "type": "artist",
            "uri": "spotify:artist:7n2wHs1TKAczGzO7Dd2rGr"
          }
        ],
        "available_markets": [],
        "disc_number": 1,
        "duration_ms": 190800,
        "explicit": false,
        "external_ids": {
          "isrc": "USUM71907349"
        },
        "external_urls": {
          "spotify": "https://open.spotify.com/track/6LsAAHotRLMOHfCsSfYCsz"
        },
        "href": "https://api.spotify.com/v1/tracks/6LsAAHotRLMOHfCsSfYCsz",
        "id": "6LsAAHotRLMOHfCsSfYCsz",
        "is_local": false,
        "is_playable": true,
        "name": "If I Can't Have You",
        "popularity": 80,
        "preview_url": null,
        "track_number": 1,
        "type": "track",
        "uri": "spotify:track:6LsAAHotRLMOHfCsSfYCsz"
      }
    },
    {
      "added_at": "2019-05-03T16:16:01Z",
      "track": {
        "album": {
          "album_type": "single",
          "artists": [
            {
              "external_urls": {
                "spotify": "https://open.spotify.com/artist/1RgRznwEd6OpNnHyBuxaFf"
              },
              "href": "https://api.spotify.com/v1/artists/1RgRznwEd6OpNnHyBuxaFf",
              "id": "1RgRznwEd6OpNnHyBuxaFf",
              "name": "Juback",
              "type": "artist",
              "uri": "spotify:artist:1RgRznwEd6OpNnHyBuxaFf"
            }
          ],
          "external_urls": {
            "spotify": "https://open.spotify.com/album/3nBw4uNUYjplqW41rDIM2A"
          },
          "href": "https://api.spotify.com/v1/albums/3nBw4uNUYjplqW41rDIM2A",
          "id": "3nBw4uNUYjplqW41rDIM2A",
          "images": [
            {
              "height": 640,
              "url": "https://i.scdn.co/image/ab67616d0000b273afc03b322a7ee4c03bb8c733",
              "width": 640
            },
            {
              "height": 300,
              "url": "https://i.scdn.co/image/ab67616d00001e02afc03b322a7ee4c03bb8c733",
              "width": 300
            },
            {
              "height": 64,
              "url": "https://i.scdn.co/image/ab67616d00004851afc03b322a7ee4c03bb8c733",
              "width": 64
            }
          ],
          "name": "Smoking Chill",
          "release_date": "2019-03-28",
          "release_date_precision": "day",
          "total_tracks": 2,
          "type": "album",
          "uri": "spotify:album:3nBw4uNUYjplqW41rDIM2A"
        },
        "artists": [
          {
            "external_urls": {
              "spotify": "https://open.spotify.com/artist/1RgRznwEd6OpNnHyBuxaFf"
            },
            "href": "https://api.spotify.com/v1/artists/1RgRznwEd6OpNnHyBuxaFf",
            "id": "1RgRznwEd6OpNnHyBuxaFf",
            "name": "Juback",
            "type": "artist",
            "uri": "spotify:artist:1RgRznwEd6OpNnHyBuxaFf"
          }
        ],
        "available_markets": [],
        "disc_number": 1,
        "duration_ms": 135946,
        "explicit": false,
        "external_ids": {
          "isrc": "CAENV1917768"
        },
        "external_urls": {
          "spotify": "https://open.spotify.com/track/4ZSO16j0oryCEKogT7EHz1"
        },
        "href": "https://api.spotify.com/v1/tracks/4ZSO16j0oryCEKogT7EHz1",
        "id": "4ZSO16j0oryCEKogT7EHz1",
        "is_local": false,
        "is_playable": false,
        "name": "Tales",
        "popularity": 0,
        "preview_url": null,
        "restrictions": {
          "reason": "market"
        },
        "track_number": 2,
        "type": "track",
        "uri": "spotify:track:4ZSO16j0oryCEKogT7EHz1"
      }
    },
    {
      "added_at": "2018-11-29T15:21:26Z",
      "track": {
        "album": {
          "album_type": "album",
          "artists": [
            {
              "external_urls": {
                "spotify": "https://open.spotify.com/artist/3aYxCTr2tJWDjOy9yVE9XP"
              },
              "href": "https://api.spotify.com/v1/artists/3aYxCTr2tJWDjOy9yVE9XP",
              "id": "3aYxCTr2tJWDjOy9yVE9XP",
              "name": "Fabio Colosimo",
              "type": "artist",
              "uri": "spotify:artist:3aYxCTr2tJWDjOy9yVE9XP"
            }
          ],
          "external_urls": {
            "spotify": "https://open.spotify.com/album/74aN7TOIh3BjXXzuBq8fcs"
          },
          "href": "https://api.spotify.com/v1/albums/74aN7TOIh3BjXXzuBq8fcs",
          "id": "74aN7TOIh3BjXXzuBq8fcs",
          "images": [
            {
              "height": 640,
              "url": "https://i.scdn.co/image/ab67616d0000b273630a448b0c152c4e9a632f17",
              "width": 640
            },
            {
              "height": 300,
              "url": "https://i.scdn.co/image/ab67616d00001e02630a448b0c152c4e9a632f17",
              "width": 300
            },
            {
              "height": 64,
              "url": "https://i.scdn.co/image/ab67616d00004851630a448b0c152c4e9a632f17",
              "width": 64
            }
          ],
          "name": "Falsi Originali D'autore",
          "release_date": "2012-10-04",
          "release_date_precision": "day",
          "total_tracks": 8,
          "type": "album",
          "uri": "spotify:album:74aN7TOIh3BjXXzuBq8fcs"
        },
        "artists": [
          {
            "external_urls": {
              "spotify": "https://open.spotify.com/artist/3aYxCTr2tJWDjOy9yVE9XP"
            },
            "href": "https://api.spotify.com/v1/artists/3aYxCTr2tJWDjOy9yVE9XP",
            "id": "3aYxCTr2tJWDjOy9yVE9XP",
            "name": "Fabio Colosimo",
            "type": "artist",
            "uri": "spotify:artist:3aYxCTr2tJWDjOy9yVE9XP"
          }
        ],
        "available_markets": [],
        "disc_number": 1,
        "duration_ms": 228088,
        "explicit": false,
        "external_ids": {
          "isrc": "FR6V81313762"
        },
        "external_urls": {
          "spotify": "https://open.spotify.com/track/2nu10yOX1Yu93bUVnHNCHM"
        },
        "href": "https://api.spotify.com/v1/tracks/2nu10yOX1Yu93bUVnHNCHM",
        "id": "2nu10yOX1Yu93bUVnHNCHM",
        "is_local": false,
        "is_playable": true,
        "name": "The Reason",
        "popularity": 0,
        "preview_url": "https://p.scdn.co/mp3-preview/893cb68a94bb7d6dbe4ded52962ba5ab1e254935?cid=774b29d4f13844c495f206cafdad9c86",
        "track_number": 3,
        "type": "track",
        "uri": "spotify:track:2nu10yOX1Yu93bUVnHNCHM"
      }
    },
    {
      "added_at": "2018-11-29T13:22:26Z",
      "track": {
        "album": {
          "album_type": "single",
          "artists": [
            {
              "external_urls": {
                "spotify": "https://open.spotify.com/artist/2PuVXcb4GciJANBoS1mbuA"
              },
              "href": "https://api.spotify.com/v1/artists/2PuVXcb4GciJANBoS1mbuA",
              "id": "2PuVXcb4GciJANBoS1mbuA",
              "name": "Marc Robillard",
              "type": "artist",
              "uri": "spotify:artist:2PuVXcb4GciJANBoS1mbuA"
            }
          ],
          "external_urls": {
            "spotify": "https://open.spotify.com/album/3EpEJX0Z0y4QMqolcjLn2w"
          },
          "href": "https://api.spotify.com/v1/albums/3EpEJX0Z0y4QMqolcjLn2w",
          "id": "3EpEJX0Z0y4QMqolcjLn2w",
          "images": [
            {
              "height": 640,
              "url": "https://i.scdn.co/image/ab67616d0000b273b4f11b1c9263344ab44964c8",
              "width": 640
            },
            {
              "height": 300,
              "url": "https://i.scdn.co/image/ab67616d00001e02b4f11b1c9263344ab44964c8",
              "width": 300
            },
            {
              "height": 64,
              "url": "https://i.scdn.co/image/ab67616d00004851b4f11b1c9263344ab44964c8",
              "width": 64
            }
          ],
          "name": "A Girl I Didn't Know",
          "release_date": "2016-01-29",
          "release_date_precision": "day",
          "total_tracks": 1,
          "type": "album",
          "uri": "spotify:album:3EpEJX0Z0y4QMqolcjLn2w"
        },
        "artists": [
          {
            "external_urls": {
              "spotify": "https://open.spotify.com/artist/2PuVXcb4GciJANBoS1mbuA"
            },
            "href": "https://api.spotify.com/v1/artists/2PuVXcb4GciJANBoS1mbuA",
            "id": "2PuVXcb4GciJANBoS1mbuA",
            "name": "Marc Robillard",
            "type": "artist",
            "uri": "spotify:artist:2PuVXcb4GciJANBoS1mbuA"
          }
        ],
        "available_markets": [],
        "disc_number": 1,
        "duration_ms": 201896,
        "explicit": false,
        "external_ids": {
          "isrc": "TCACL1668650"
        },
        "external_urls": {
          "spotify": "https://open.spotify.com/track/2BmeEMAABmvIDpmqoeYRDt"
        },
        "href": "https://api.spotify.com/v1/tracks/2BmeEMAABmvIDpmqoeYRDt",
        "id": "2BmeEMAABmvIDpmqoeYRDt",
        "is_local": false,
        "is_playable": true,
        "name": "A Girl I Didn't Know",
        "popularity": 11,
        "preview_url": "https://p.scdn.co/mp3-preview/ec066e4e04ec409f73cccfaeff04d5c28a6af091?cid=774b29d4f13844c495f206cafdad9c86",
        "track_number": 1,
        "type": "track",
        "uri": "spotify:track:2BmeEMAABmvIDpmqoeYRDt"
      }
    },
    {
      "added_at": "2018-09-01T08:04:09Z",
      "track": {
        "album": {
          "album_type": "album",
          "artists": [
            {
              "external_urls": {
                "spotify": "https://open.spotify.com/artist/42TFhl7WlMRXiNqzSrnzPL"
              },
              "href": "https://api.spotify.com/v1/artists/42TFhl7WlMRXiNqzSrnzPL",
              "id": "42TFhl7WlMRXiNqzSrnzPL",
              "name": "Lou Reed",
              "type": "artist",
              "uri": "spotify:artist:42TFhl7WlMRXiNqzSrnzPL"
            }
          ],
          "external_urls": {
            "spotify": "https://open.spotify.com/album/5SqbMEyAt8332ISGiLX0St"
          },
          "href": "https://api.spotify.com/v1/albums/5SqbMEyAt8332ISGiLX0St",
          "id": "5SqbMEyAt8332ISGiLX0St",
          "images": [
            {
              "height": 640,
              "url": "https://i.scdn.co/image/ab67616d0000b273d55149748dca0e5a1f40778e",
              "width": 640
            },
            {
              "height": 300,
              "url": "https://i.scdn.co/image/ab67616d00001e02d55149748dca0e5a1f40778e",
              "width": 300
            },
            {
              "height": 64,
              "url": "https://i.scdn.co/image/ab67616d00004851d55149748dca0e5a1f40778e",
              "width": 64
            }
          ],
          "name": "Transformer",
          "release_date": "1972-12-01",
          "release_date_precision": "day",
          "total_tracks": 11,
          "type": "album",
          "uri": "spotify:album:5SqbMEyAt8332ISGiLX0St"
        },
        "artists": [
          {
            "external_urls": {
              "spotify": "https://open.spotify.com/artist/42TFhl7WlMRXiNqzSrnzPL"
            },
            "href": "https://api.spotify.com/v1/artists/42TFhl7WlMRXiNqzSrnzPL",
            "id": "42TFhl7WlMRXiNqzSrnzPL",
            "name": "Lou Reed",
            "type": "artist",
            "uri": "spotify:artist:42TFhl7WlMRXiNqzSrnzPL"
          }
        ],
        "available_markets": [],
        "disc_number": 1,
        "duration_ms": 254173,
        "explicit": false,
        "external_ids": {
          "isrc": "USRC17201948"
        },
        "external_urls": {
          "spotify": "https://open.spotify.com/track/5p3JunprHCxClJjOmcLV8G"
        },
        "href": "https://api.spotify.com/v1/tracks/5p3JunprHCxClJjOmcLV8G",
        "id": "5p3JunprHCxClJjOmcLV8G",
        "is_local": false,
        "is_playable": true,
        "name": "Walk On the Wild Side",
        "popularity": 76,
        "preview_url": "https://p.scdn.co/mp3-preview/ba3b4fe65d5198801dc5853e1d9f26f3dc47e8a9?cid=774b29d4f13844c495f206cafdad9c86",
        "track_number": 5,
        "type": "track",
        "uri": "spotify:track:5p3JunprHCxClJjOmcLV8G"
      }
    },
    {
      "added_at": "2018-07-14T18:54:06Z",
      "track": {
        "album": {
          "album_type": "album",
          "artists": [
            {
              "external_urls": {
                "spotify": "https://open.spotify.com/artist/4LEiUm1SRbFMgfqnQTwUbQ"
              },
              "href": "https://api.spotify.com/v1/artists/4LEiUm1SRbFMgfqnQTwUbQ",
              "id": "4LEiUm1SRbFMgfqnQTwUbQ",
              "name": "Bon Iver",
              "type": "artist",
              "uri": "spotify:artist:4LEiUm1SRbFMgfqnQTwUbQ"
            }
          ],
          "external_urls": {
            "spotify": "https://open.spotify.com/album/1r5JEclOv0s5S8GhFet0Wx"
          },
          "href": "https://api.spotify.com/v1/albums/1r5JEclOv0s5S8GhFet0Wx",
          "id": "1r5JEclOv0s5S8GhFet0Wx",
          "images": [
            {
              "height": 640,
              "url": "https://i.scdn.co/image/ab67616d0000b2730d297cf649ffc8ba462b3634",
              "width": 640
            },
            {
              "height": 300,
              "url": "https://i.scdn.co/image/ab67616d00001e020d297cf649ffc8ba462b3634",
              "width": 300
            },
            {
              "height": 64,
              "url": "https://i.scdn.co/image/ab67616d000048510d297cf649ffc8ba462b3634",
              "width": 64
            }
          ],
          "name": "For Emma, Forever Ago",
          "release_date": "2008-05-12",
          "release_date_precision": "day",
          "total_tracks": 9,
          "type": "album",
          "uri": "spotify:album:1r5JEclOv0s5S8GhFet0Wx"
        },
        "artists": [
          {
            "external_urls": {
              "spotify": "https://open.spotify.com/artist/4LEiUm1SRbFMgfqnQTwUbQ"
            },
            "href": "https://api.spotify.com/v1/artists/4LEiUm1SRbFMgfqnQTwUbQ",
            "id": "4LEiUm1SRbFMgfqnQTwUbQ",
            "name": "Bon Iver",
            "type": "artist",
            "uri": "spotify:artist:4LEiUm1SRbFMgfqnQTwUbQ"
          }
        ],
        "available_markets": [],
        "disc_number": 1,
        "duration_ms": 220732,
        "explicit": false,
        "external_ids": {
          "isrc": "US38Y0811508"
        },
        "external_urls": {
          "spotify": "https://open.spotify.com/track/64jVNNTwT0NdQbqqUIa8gi"
        },
        "href": "https://api.spotify.com/v1/tracks/64jVNNTwT0NdQbqqUIa8gi",
        "id": "64jVNNTwT0NdQbqqUIa8gi",
        "is_local": false,
        "is_playable": true,
        "linked_from": {
          "external_urls": {
            "spotify": "https://open.spotify.com/track/0mP897I93DZwdgtjkSriwj"
          },
          "href": "https://api.spotify.com/v1/tracks/0mP897I93DZwdgtjkSriwj",
          "id": "0mP897I93DZwdgtjkSriwj",
          "type": "track",
          "uri": "spotify:track:0mP897I93DZwdgtjkSriwj"
        },
        "name": "For Emma",
        "popularity": 43,
        "preview_url": "https://p.scdn.co/mp3-preview/00bf6f299df656d4e331ed33ec1880a313baa4ff?cid=774b29d4f13844c495f206cafdad9c86",
        "track_number": 8,
        "type": "track",
        "uri": "spotify:track:64jVNNTwT0NdQbqqUIa8gi"
      }
    }
  ],
  "limit": 10,
  "next": "https://api.spotify.com/v1/me/tracks?offset=15&limit=10&market=ES",
  "offset": 5,
  "previous": "https://api.spotify.com/v1/me/tracks?offset=0&limit=10&market=ES",
  "total": 54
}

